…
```
## # A tibble: 2 x 2
##   areaCode  April_2021
##   <chr>          <dbl>
## 1 E02002991          3
## 2 E02002997          3
```

```r
high_week
```

```
## # A tibble: 27 x 2
##    areaCode  July_2021
##    <chr>         <dbl>
##  1 E02002985        26
##  2 E02002986        41
##  3 E02002987        21
##  4 E02002988        17
##  5 E02002989        13
##  6 E02002990        22
##  7 E02002991        27
##  8 E02002992        28
##  9 E02002993        22
## 10 E02002994        32
## # ... with 17 more rows
```
…
